…
    ## NULL

``` r
lessons <- read_json(raw_lessons, simplifyVector = FALSE) %>%
  purrr::map_dfr(.f = dplyr::as_tibble) %>%
  dplyr::mutate_if(is.character, 
    ~dplyr::if_else(. == "NA", as.character(NA), .)) %>%
  dplyr::mutate(life_cycle = forcats::fct_relevel(life_cycle,
      "pre-alpha", "alpha", "beta", "stable", "on-hold", "deprecated"
    )) %>%
  dplyr::mutate(life_cycle = forcats::fct_explicit_na(life_cycle)) %>%
  print()
```

    ## # A tibble: 88 x 6
    ##    repository                         curriculum           life_cycle language `_row` URL                                                       
    ##    <chr>                              <chr>                <fct>      <chr>    <chr>  <chr>                                                     
    ##  1 capstone-novice-spreadsheet-biblio <NA>                 pre-alpha  en       1      <NA>                                                      
    ##  2 lc-spreadsheets                    lc                   beta       en       2      https://github.com/LibraryCarpentry/lc-spreadsheets       
    ##  3 rr-automation                      reproducible-science on-hold    en       3      https://github.com/datacarpentry/rr-automation            
    ##  4 lesson-example                     <NA>                 stable     en       4      https://github.com/carpentries/lesson-example             
    ##  5 git-novice-es                      swc-es               stable     es       5      https://github.com/swcarpentry/git-novice-es              
    ##  6 shell-economics                    dc-economics         pre-alpha  en       6      https://github.com/datacarpentry/shell-economics/         
    ##  7 openrefine-ecology-lesson          dc-ecology           stable     en       7      https://github.com/datacarpentry/openrefine-ecology-lesson
    ##  8 python-humanities-lesson           <NA>                 pre-alpha  en       8      <NA>                                                      
    ##  9 hg-novice                          swc                  stable     en       9      https://github.com/swcarpentry/hg-novice                  
    ## 10 spreadsheet-humanities-lesson      <NA>                 pre-alpha  en       10     <NA>                                                      
    ## # … with 78 more rows
…
Let’s inspect the ones that are stable and then look at the ones that
are lower down, first we should filter for those that are stable and
actually have GitHub URLs:

``` r
stable <- lessons %>% filter(
  life_cycle == "stable", 
  curriculum != "instructor-training",
  !is.na(curriculum), # these are template repositories
  !is.na(URL)         # no GitHub URL is not very useful for me
)
stable
```

    ## # A tibble: 36 x 6
    ##    repository                 curriculum life_cycle language `_row` URL                                                        
    ##    <chr>                      <chr>      <fct>      <chr>    <chr>  <chr>                                                      
    ##  1 git-novice-es              swc-es     stable     es       5      https://github.com/swcarpentry/git-novice-es               
    ##  2 openrefine-ecology-lesson  dc-ecology stable     en       7      https://github.com/datacarpentry/openrefine-ecology-lesson 
    ##  3 hg-novice                  swc        stable     en       9      https://github.com/swcarpentry/hg-novice                   
    ##  4 matlab-novice-inflammation swc        stable     en       11     https://github.com/swcarpentry/matlab-novice-inflammation  
    ##  5 r-novice-inflammation      swc        stable     en       12     https://github.com/swcarpentry/r-novice-inflammation       
    ##  6 spreadsheet-ecology-lesson dc-ecology stable     en       13     https://github.com/datacarpentry/spreadsheet-ecology-lesson
    ##  7 python-novice-gapminder    swc        stable     en       16     https://github.com/swcarpentry/python-novice-gapminder     
    ##  8 lc-data-intro              lc         stable     en       19     https://github.com/LibraryCarpentry/lc-data-intro          
    ##  9 R-ecology-lesson           dc-ecology stable     en       20     https://github.com/datacarpentry/R-ecology-lesson          
    ## 10 git-novice                 swc        stable     en       24     https://github.com/swcarpentry/git-novice                  
    ## # … with 26 more rows
…
